{
	"style": {
		"background-color": "black",
		"color": "white",
		"border": 10
	},

	"contents": [
		{
			"name": "title",
			"control": "TextView",
			"label": "NetPlay test",
			"style": {
				"color": "white"
			}
		},
		{
			"name": "result",
			"control": "TextView",
			"label": "",
			"style": {
				"color": "white"
			}
		}
	]
}
